[ { departureTime: Thu Sep 22 2016 06:10:00 GMT-0400 (EDT),
    arrivalTime: Thu Sep 22 2016 12:42:00 GMT-0400 (EDT),
    specialFare: 92,
    economyDiscountedFare: 141,
    economyRegularFare: 214,
    businessDiscountedFare: 165,
    businessRegularFare: 324,
    collectedOn: Sun Sep 11 2016 22:07:03 GMT-0400 (EDT),
    cheapestFare: 92 },
  { departureTime: Thu Sep 22 2016 06:35:00 GMT-0400 (EDT),
    arrivalTime: Thu Sep 22 2016 11:41:00 GMT-0400 (EDT),
    specialFare: 71,
    economyDiscountedFare: 141,
    economyRegularFare: 214,
    businessDiscountedFare: 165,
    businessRegularFare: 324,
    collectedOn: Sun Sep 11 2016 22:07:03 GMT-0400 (EDT),
    cheapestFare: 71 },
  { departureTime: Thu Sep 22 2016 08:40:00 GMT-0400 (EDT),
    arrivalTime: Thu Sep 22 2016 17:15:00 GMT-0400 (EDT),
    specialFare: 92,
    economyDiscountedFare: 141,
    economyRegularFare: 214,
    businessDiscountedFare: 217,
    businessRegularFare: 324,
    collectedOn: Sun Sep 11 2016 22:07:03 GMT-0400 (EDT),
    cheapestFare: 92 },
  { departureTime: Thu Sep 22 2016 08:55:00 GMT-0400 (EDT),
    arrivalTime: Thu Sep 22 2016 14:07:00 GMT-0400 (EDT),
    specialFare: 71,
    economyDiscountedFare: 141,
    economyRegularFare: 214,
    businessDiscountedFare: 165,
    businessRegularFare: 324,
    collectedOn: Sun Sep 11 2016 22:07:03 GMT-0400 (EDT),
    cheapestFare: 71 },
  { departureTime: Thu Sep 22 2016 10:55:00 GMT-0400 (EDT),
    arrivalTime: Thu Sep 22 2016 16:03:00 GMT-0400 (EDT),
    specialFare: 118,
    economyDiscountedFare: 141,
    economyRegularFare: 214,
    businessDiscountedFare: null,
    businessRegularFare: null,
    collectedOn: Sun Sep 11 2016 22:07:03 GMT-0400 (EDT),
    cheapestFare: 118 },
  { departureTime: Thu Sep 22 2016 11:37:00 GMT-0400 (EDT),
    arrivalTime: Thu Sep 22 2016 19:57:00 GMT-0400 (EDT),
    specialFare: 92,
    economyDiscountedFare: 141,
    economyRegularFare: 214,
    businessDiscountedFare: 165,
    businessRegularFare: 324,
    collectedOn: Sun Sep 11 2016 22:07:03 GMT-0400 (EDT),
    cheapestFare: 92 },
  { departureTime: Thu Sep 22 2016 15:00:00 GMT-0400 (EDT),
    arrivalTime: Thu Sep 22 2016 23:07:00 GMT-0400 (EDT),
    specialFare: 71,
    economyDiscountedFare: 141,
    economyRegularFare: 214,
    businessDiscountedFare: 137,
    businessRegularFare: 324,
    collectedOn: Sun Sep 11 2016 22:07:03 GMT-0400 (EDT),
    cheapestFare: 71 },
  { departureTime: Thu Sep 22 2016 15:45:00 GMT-0400 (EDT),
    arrivalTime: Thu Sep 22 2016 20:39:00 GMT-0400 (EDT),
    specialFare: 71,
    economyDiscountedFare: 141,
    economyRegularFare: 214,
    businessDiscountedFare: 217,
    businessRegularFare: 324,
    collectedOn: Sun Sep 11 2016 22:07:03 GMT-0400 (EDT),
    cheapestFare: 71 },
  { departureTime: Thu Sep 22 2016 16:40:00 GMT-0400 (EDT),
    arrivalTime: Thu Sep 22 2016 21:30:00 GMT-0400 (EDT),
    specialFare: 71,
    economyDiscountedFare: 141,
    economyRegularFare: 214,
    businessDiscountedFare: 165,
    businessRegularFare: 324,
    collectedOn: Sun Sep 11 2016 22:07:03 GMT-0400 (EDT),
    cheapestFare: 71 },
  { departureTime: Thu Sep 22 2016 18:40:00 GMT-0400 (EDT),
    arrivalTime: Thu Sep 22 2016 23:33:00 GMT-0400 (EDT),
    specialFare: 92,
    economyDiscountedFare: 141,
    economyRegularFare: 214,
    businessDiscountedFare: 165,
    businessRegularFare: 324,
    collectedOn: Sun Sep 11 2016 22:07:03 GMT-0400 (EDT),
    cheapestFare: 92 } ]